tb_SimpleSend.vcd
$date
	Tue Aug 28 16:52:46 2018
$end
$version
	Icarus Verilog
$end
$timescale
	1s
$end
$scope module tb_SimpleSend $end
$var wire 1 ! ClrCounter $end
$var wire 8 " Count [7:0] $end
$var wire 1 # Done $end
$var wire 1 $ IncCounter $end
$var wire 1 % LoadGRBPattern $end
$var wire 1 & ShiftPattern $end
$var wire 1 ' StartCoding $end
$var wire 1 ( allDone $end
$var wire 1 ) bdone $end
$var wire 1 * dataOut $end
$var wire 2 + qmode [1:0] $end
$var wire 1 , shipGRB $end
$var wire 1 - theBit $end
$var reg 1 . Go $end
$var reg 3 / NumLEDs [3:1] $end
$var reg 1 0 clk $end
$var reg 1 1 reset $end
$var reg 12 2 sw [15:4] $end
$scope module sssm $end
$var wire 1 # Done $end
$var wire 1 3 Go $end
$var wire 1 ( allDone $end
$var wire 1 4 clk $end
$var wire 1 5 reset $end
$var wire 1 , shipGRB $end
$var reg 2 6 S [1:0] $end
$var reg 2 7 nS [1:0] $end
$upscope $end
$scope module grbsm $end
$var wire 1 ! ClrCounter $end
$var wire 8 8 Count [7:0] $end
$var wire 1 # Done $end
$var wire 1 $ IncCounter $end
$var wire 1 % LoadGRBPattern $end
$var wire 3 9 NumLEDs [3:1] $end
$var wire 1 & ShiftPattern $end
$var wire 1 , ShipGRB $end
$var wire 1 ' StartCoding $end
$var wire 1 ( allDone $end
$var wire 1 ) bdone $end
$var wire 1 4 clk $end
$var wire 2 : qmode [1:0] $end
$var wire 1 5 reset $end
$var wire 1 - theBit $end
$var reg 8 ; COMPAREVAL [7:0] $end
$var reg 1 < S $end
$var reg 1 = nS $end
$var reg 15 > rCount [14:0] $end
$upscope $end
$scope module shftr $end
$var wire 1 - CurrentBit $end
$var wire 1 % LoadRegister $end
$var wire 1 & RotateRegisterLeft $end
$var wire 1 4 clk $end
$var wire 1 5 reset $end
$var wire 12 ? sw [15:4] $end
$var reg 24 @ TheReg [23:0] $end
$var reg 24 A nTheReg [23:0] $end
$upscope $end
$scope module btcnt $end
$var wire 1 ! ClearCounter $end
$var wire 1 $ IncCounter $end
$var wire 1 4 clk $end
$var wire 1 5 reset $end
$var reg 8 B Count [7:0] $end
$var reg 8 C nCount [7:0] $end
$upscope $end
$scope module nzrgn $end
$var wire 1 ) bdone $end
$var wire 1 4 clk $end
$var wire 2 D qmode [1:0] $end
$var wire 1 5 reset $end
$var wire 1 ' startcoding $end
$var reg 7 E bcount [6:0] $end
$var reg 1 F bout $end
$upscope $end
$upscope $end
$enddefinitions $end
#0
$dumpvars
0F
bx E
bx D
bx C
bx B
bx A
bx @
b10010101001 ?
bx >
x=
x<
b10111 ;
bx :
b1 9
bx 8
b0 7
bx 6
15
04
03
b10010101001 2
11
00
b1 /
0.
x-
x,
bx +
0*
x)
x(
x'
x&
x%
x$
x#
bx "
x!
$end
#5
0%
0!
0'
b10 +
b10 :
b10 D
0(
b11110000111100001111 A
0-
b0 C
0#
0$
0&
0=
b0 6
0,
0<
b0 >
b11110000111100001111 @
b0 B
b0 "
b0 8
b0 E
0)
10
14
#10
00
04
#15
10
14
#20
00
04
01
05
#25
b1 >
b1 E
10
14
#30
00
04
#35
b10 E
b10 >
10
14
#40
b1 7
00
04
1.
13
#45
b10000001010000010010000 A
1%
1!
1'
1=
b1 6
1,
b11 >
b11 E
10
14
#50
00
04
#55
1F
1*
0%
0!
0'
b0 +
b0 :
b0 D
b0 E
b10000001010000010010000 @
b100 >
1<
10
14
#60
00
04
#65
b1 E
10
14
#70
00
04
#75
b10 E
10
14
#80
00
04
#85
b11 E
10
14
#90
00
04
#95
b100 E
10
14
#100
00
04
#105
b101 E
10
14
#110
00
04
#115
b110 E
10
14
#120
00
04
0.
03
#125
b111 E
10
14
#130
00
04
#135
b1000 E
10
14
#140
00
04
#145
b1001 E
10
14
#150
00
04
#155
b1010 E
10
14
#160
00
04
#165
b1011 E
10
14
#170
00
04
#175
b1100 E
10
14
#180
00
04
#185
b1101 E
10
14
#190
00
04
#195
b1110 E
10
14
#200
00
04
#205
b1111 E
10
14
#210
00
04
#215
b10000 E
10
14
#220
00
04
#225
b10001 E
10
14
#230
00
04
#235
b10010 E
10
14
#240
00
04
#245
b10011 E
10
14
#250
00
04
#255
b10100 E
10
14
#260
00
04
#265
b10101 E
10
14
#270
00
04
#275
b10110 E
10
14
#280
00
04
#285
b10111 E
10
14
#290
00
04
#295
b11000 E
10
14
#300
00
04
#305
b11001 E
10
14
#310
00
04
#315
b11010 E
10
14
#320
00
04
#325
b11011 E
10
14
#330
00
04
#335
b11100 E
10
14
#340
00
04
#345
b11101 E
10
14
#350
00
04
#355
b11110 E
10
14
#360
00
04
#365
b11111 E
10
14
#370
00
04
#375
b100000 E
10
14
#380
00
04
#385
b100001 E
10
14
#390
00
04
#395
b100010 E
10
14
#400
00
04
#405
b100011 E
10
14
#410
00
04
#415
0F
0*
b100100 E
10
14
#420
00
04
#425
b100101 E
10
14
#430
00
04
#435
b100110 E
10
14
#440
00
04
#445
b100111 E
10
14
#450
00
04
#455
b101000 E
10
14
#460
00
04
#465
b101001 E
10
14
#470
00
04
#475
b101010 E
10
14
#480
00
04
#485
b101011 E
10
14
#490
00
04
#495
b101100 E
10
14
#500
00
04
#505
b101101 E
10
14
#510
00
04
#515
b101110 E
10
14
#520
00
04
#525
b101111 E
10
14
#530
00
04
#535
b110000 E
10
14
#540
00
04
#545
b110001 E
10
14
#550
00
04
#555
b110010 E
10
14
#560
00
04
#565
b110011 E
10
14
#570
00
04
#575
b110100 E
10
14
#580
00
04
#585
b110101 E
10
14
#590
00
04
#595
b110110 E
10
14
#600
00
04
#605
b110111 E
10
14
#610
00
04
#615
b111000 E
10
14
#620
00
04
#625
b111001 E
10
14
#630
00
04
#635
b111010 E
10
14
#640
00
04
#645
b111011 E
10
14
#650
00
04
#655
b111100 E
10
14
#660
00
04
#665
b111101 E
10
14
#670
00
04
#675
b111110 E
10
14
#680
00
04
#685
b111111 E
10
14
#690
00
04
#695
b1000000 E
10
14
#700
00
04
#705
b1000001 E
10
14
#710
00
04
#715
b1000010 E
10
14
#720
00
04
#725
b1000011 E
10
14
#730
00
04
#735
b1000100 E
10
14
#740
00
04
#745
b1000101 E
10
14
#750
00
04
#755
b1000110 E
10
14
#760
00
04
#765
b1000111 E
10
14
#770
00
04
#775
b1001000 E
10
14
#780
00
04
#785
b1001001 E
10
14
#790
00
04
#795
b1001010 E
10
14
#800
00
04
#805
b1001011 E
10
14
#810
00
04
#815
b1001100 E
10
14
#820
00
04
#825
b1001101 E
10
14
#830
00
04
#835
b1001110 E
10
14
#840
00
04
#845
b1001111 E
10
14
#850
00
04
#855
b1010000 E
10
14
#860
00
04
#865
b1010001 E
10
14
#870
00
04
#875
b1010010 E
10
14
#880
00
04
#885
b1010011 E
10
14
#890
00
04
#895
b1010100 E
10
14
#900
00
04
#905
b1010101 E
10
14
#910
00
04
#915
b1010110 E
10
14
#920
00
04
#925
b1010111 E
10
14
#930
00
04
#935
b1011000 E
10
14
#940
00
04
#945
b1011001 E
10
14
#950
00
04
#955
b1011010 E
10
14
#960
00
04
#965
b1011011 E
10
14
#970
00
04
#975
b1011100 E
10
14
#980
00
04
#985
b1011101 E
10
14
#990
00
04
#995
b1011110 E
10
14
#1000
00
04
#1005
b1011111 E
10
14
#1010
00
04
#1015
b1100000 E
10
14
#1020
00
04
#1025
b1100001 E
10
14
#1030
00
04
#1035
b1100010 E
10
14
#1040
00
04
#1045
b1100011 E
10
14
#1050
00
04
#1055
b1100100 E
10
14
#1060
00
04
#1065
b1100101 E
10
14
#1070
00
04
#1075
b1100110 E
10
14
#1080
00
04
#1085
b1100111 E
10
14
#1090
00
04
#1095
b1101000 E
10
14
#1100
00
04
#1105
b1101001 E
10
14
#1110
00
04
#1115
b1101010 E
10
14
#1120
00
04
#1125
b1101011 E
10
14
#1130
00
04
#1135
b1101100 E
10
14
#1140
00
04
#1145
b1101101 E
10
14
#1150
00
04
#1155
b1101110 E
10
14
#1160
00
04
#1165
b1101111 E
10
14
#1170
00
04
#1175
b1110000 E
10
14
#1180
00
04
#1185
b1110001 E
10
14
#1190
00
04
#1195
b1110010 E
10
14
#1200
00
04
#1205
b1110011 E
10
14
#1210
00
04
#1215
b1110100 E
10
14
#1220
00
04
#1225
b1110101 E
10
14
#1230
00
04
#1235
b1110110 E
10
14
#1240
00
04
#1245
b1110111 E
10
14
#1250
00
04
#1255
b1111000 E
10
14
#1260
00
04
#1265
b1111001 E
10
14
#1270
00
04
#1275
b1111010 E
10
14
#1280
00
04
#1285
b1111011 E
10
14
#1290
00
04
#1295
b1111100 E
10
14
#1300
00
04
#1305
b1111101 E
10
14
#1310
00
04
#1315
b1111110 E
10
14
#1320
00
04
#1325
b1 C
b100000010100000100100000 A
1$
1&
b1111111 E
1)
10
14
#1330
00
04
#1335
b1 +
b1 :
b1 D
1F
1*
0$
0&
b1 C
b100000010100000100100000 A
1-
b0 E
0)
b1 B
b1 "
b1 8
b100000010100000100100000 @
10
14
#1340
00
04
#1345
b1 E
10
14
#1350
00
04
#1355
b10 E
10
14
#1360
00
04
#1365
b11 E
10
14
#1370
00
04
#1375
b100 E
10
14
#1380
00
04
#1385
b101 E
10
14
#1390
00
04
#1395
b110 E
10
14
#1400
00
04
#1405
b111 E
10
14
#1410
00
04
#1415
b1000 E
10
14
#1420
00
04
#1425
b1001 E
10
14
#1430
00
04
#1435
b1010 E
10
14
#1440
00
04
#1445
b1011 E
10
14
#1450
00
04
#1455
b1100 E
10
14
#1460
00
04
#1465
b1101 E
10
14
#1470
00
04
#1475
b1110 E
10
14
#1480
00
04
#1485
b1111 E
10
14
#1490
00
04
#1495
b10000 E
10
14
#1500
00
04
#1505
b10001 E
10
14
#1510
00
04
#1515
b10010 E
10
14
#1520
00
04
#1525
b10011 E
10
14
#1530
00
04
#1535
b10100 E
10
14
#1540
00
04
#1545
b10101 E
10
14
#1550
00
04
#1555
b10110 E
10
14
#1560
00
04
#1565
b10111 E
10
14
#1570
00
04
#1575
b11000 E
10
14
#1580
00
04
#1585
b11001 E
10
14
#1590
00
04
#1595
b11010 E
10
14
#1600
00
04
#1605
b11011 E
10
14
#1610
00
04
#1615
b11100 E
10
14
#1620
00
04
#1625
b11101 E
10
14
#1630
00
04
#1635
b11110 E
10
14
#1640
00
04
#1645
b11111 E
10
14
#1650
00
04
#1655
b100000 E
10
14
#1660
00
04
#1665
b100001 E
10
14
#1670
00
04
#1675
b100010 E
10
14
#1680
00
04
#1685
b100011 E
10
14
#1690
00
04
#1695
b100100 E
10
14
#1700
00
04
#1705
b100101 E
10
14
#1710
00
04
#1715
b100110 E
10
14
#1720
00
04
#1725
b100111 E
10
14
#1730
00
04
#1735
b101000 E
10
14
#1740
00
04
#1745
b101001 E
10
14
#1750
00
04
#1755
b101010 E
10
14
#1760
00
04
#1765
b101011 E
10
14
#1770
00
04
#1775
b101100 E
10
14
#1780
00
04
#1785
b101101 E
10
14
#1790
00
04
#1795
b101110 E
10
14
#1800
00
04
#1805
b101111 E
10
14
#1810
00
04
#1815
b110000 E
10
14
#1820
00
04
#1825
b110001 E
10
14
#1830
00
04
#1835
b110010 E
10
14
#1840
00
04
#1845
b110011 E
10
14
#1850
00
04
#1855
b110100 E
10
14
#1860
00
04
#1865
b110101 E
10
14
#1870
00
04
#1875
b110110 E
10
14
#1880
00
04
#1885
b110111 E
10
14
#1890
00
04
#1895
b111000 E
10
14
#1900
00
04
#1905
b111001 E
10
14
#1910
00
04
#1915
b111010 E
10
14
#1920
00
04
#1925
b111011 E
10
14
#1930
00
04
#1935
b111100 E
10
14
#1940
00
04
#1945
b111101 E
10
14
#1950
00
04
#1955
b111110 E
10
14
#1960
00
04
#1965
b111111 E
10
14
#1970
00
04
#1975
b1000000 E
10
14
#1980
00
04
#1985
b1000001 E
10
14
#1990
00
04
#1995
b1000010 E
10
14
#2000
00
04
#2005
b1000011 E
10
14
#2010
00
04
#2015
b1000100 E
10
14
#2020
00
04
#2025
b1000101 E
10
14
#2030
00
04
#2035
b1000110 E
10
14
#2040
00
04
#2045
b1000111 E
10
14
#2050
00
04
#2055
b1001000 E
10
14
#2060
00
04
#2065
b1001001 E
10
14
#2070
00
04
#2075
b1001010 E
10
14
#2080
00
04
#2085
b1001011 E
10
14
#2090
00
04
#2095
b1001100 E
10
14
#2100
00
04
#2105
b1001101 E
10
14
#2110
00
04
#2115
b1001110 E
10
14
#2120
00
04
#2125
b1001111 E
10
14
#2130
00
04
#2135
b1010000 E
10
14
#2140
00
04
#2145
b1010001 E
10
14
#2150
00
04
#2155
b1010010 E
10
14
#2160
00
04
#2165
b1010011 E
10
14
#2170
00
04
#2175
b1010100 E
10
14
#2180
00
04
#2185
b1010101 E
10
14
#2190
00
04
#2195
b1010110 E
10
14
#2200
00
04
#2205
b1010111 E
10
14
#2210
00
04
#2215
b1011000 E
10
14
#2220
00
04
#2225
b1011001 E
10
14
#2230
00
04
#2235
b1011010 E
10
14
#2240
00
04
#2245
b1011011 E
10
14
#2250
00
04
#2255
0F
0*
b1011100 E
10
14
#2260
00
04
#2265
b1011101 E
10
14
#2270
00
04
#2275
b1011110 E
10
14
#2280
00
04
#2285
b1011111 E
10
14
#2290
00
04
#2295
b1100000 E
10
14
#2300
00
04
#2305
b1100001 E
10
14
#2310
00
04
#2315
b1100010 E
10
14
#2320
00
04
#2325
b1100011 E
10
14
#2330
00
04
#2335
b1100100 E
10
14
#2340
00
04
#2345
b1100101 E
10
14
#2350
00
04
#2355
b1100110 E
10
14
#2360
00
04
#2365
b1100111 E
10
14
#2370
00
04
#2375
b1101000 E
10
14
#2380
00
04
#2385
b1101001 E
10
14
#2390
00
04
#2395
b1101010 E
10
14
#2400
00
04
#2405
b1101011 E
10
14
#2410
00
04
#2415
b1101100 E
10
14
#2420
00
04
#2425
b1101101 E
10
14
#2430
00
04
#2435
b1101110 E
10
14
#2440
00
04
#2445
b1101111 E
10
14
#2450
00
04
#2455
b1110000 E
10
14
#2460
00
04
#2465
b1110001 E
10
14
#2470
00
04
#2475
b1110010 E
10
14
#2480
00
04
#2485
b1110011 E
10
14
#2490
00
04
#2495
b1110100 E
10
14
#2500
00
04
#2505
b1110101 E
10
14
#2510
00
04
#2515
b1110110 E
10
14
#2520
00
04
#2525
b1110111 E
10
14
#2530
00
04
#2535
b1111000 E
10
14
#2540
00
04
#2545
b1111001 E
10
14
#2550
00
04
#2555
b1111010 E
10
14
#2560
00
04
#2565
b1111011 E
10
14
#2570
00
04
#2575
b1111100 E
10
14
#2580
00
04
#2585
b1111101 E
10
14
#2590
00
04
#2595
b1111110 E
10
14
#2600
00
04
#2605
b10 C
b101000001001000001 A
1$
1&
b1111111 E
1)
10
14
#2610
00
04
#2615
b0 +
b0 :
b0 D
1F
1*
0$
0&
b10 C
b101000001001000001 A
0-
b0 E
0)
b10 B
b10 "
b10 8
b101000001001000001 @
10
14
#2620
00
04
#2625
b1 E
10
14
#2630
00
04
#2635
b10 E
10
14
#2640
00
04
#2645
b11 E
10
14
#2650
00
04
#2655
b100 E
10
14
#2660
00
04
#2665
b101 E
10
14
#2670
00
04
#2675
b110 E
10
14
#2680
00
04
#2685
b111 E
10
14
#2690
00
04
#2695
b1000 E
10
14
#2700
00
04
#2705
b1001 E
10
14
#2710
00
04
#2715
b1010 E
10
14
#2720
00
04
#2725
b1011 E
10
14
#2730
00
04
#2735
b1100 E
10
14
#2740
00
04
#2745
b1101 E
10
14
#2750
00
04
#2755
b1110 E
10
14
#2760
00
04
#2765
b1111 E
10
14
#2770
00
04
#2775
b10000 E
10
14
#2780
00
04
#2785
b10001 E
10
14
#2790
00
04
#2795
b10010 E
10
14
#2800
00
04
#2805
b10011 E
10
14
#2810
00
04
#2815
b10100 E
10
14
#2820
00
04
#2825
b10101 E
10
14
#2830
00
04
#2835
b10110 E
10
14
#2840
00
04
#2845
b10111 E
10
14
#2850
00
04
#2855
b11000 E
10
14
#2860
00
04
#2865
b11001 E
10
14
#2870
00
04
#2875
b11010 E
10
14
#2880
00
04
#2885
b11011 E
10
14
#2890
00
04
#2895
b11100 E
10
14
#2900
00
04
#2905
b11101 E
10
14
#2910
00
04
#2915
b11110 E
10
14
#2920
00
04
#2925
b11111 E
10
14
#2930
00
04
#2935
b100000 E
10
14
#2940
00
04
#2945
b100001 E
10
14
#2950
00
04
#2955
b100010 E
10
14
#2960
00
04
#2965
b100011 E
10
14
#2970
00
04
#2975
0F
0*
b100100 E
10
14
#2980
00
04
#2985
b100101 E
10
14
#2990
00
04
#2995
b100110 E
10
14
#3000
00
04
#3005
b100111 E
10
14
#3010
00
04
#3015
b101000 E
10
14
#3020
00
04
#3025
b101001 E
10
14
#3030
00
04
#3035
b101010 E
10
14
#3040
00
04
#3045
b101011 E
10
14
#3050
00
04
#3055
b101100 E
10
14
#3060
00
04
#3065
b101101 E
10
14
#3070
00
04
#3075
b101110 E
10
14
#3080
00
04
#3085
b101111 E
10
14
#3090
00
04
#3095
b110000 E
10
14
#3100
00
04
#3105
b110001 E
10
14
#3110
00
04
#3115
b110010 E
10
14
#3120
00
04
#3125
b110011 E
10
14
#3130
00
04
#3135
b110100 E
10
14
#3140
00
04
#3145
b110101 E
10
14
#3150
00
04
#3155
b110110 E
10
14
#3160
00
04
#3165
b110111 E
10
14
#3170
00
04
#3175
b111000 E
10
14
#3180
00
04
#3185
b111001 E
10
14
#3190
00
04
#3195
b111010 E
10
14
#3200
00
04
#3205
b111011 E
10
14
#3210
00
04
#3215
b111100 E
10
14
#3220
00
04
#3225
b111101 E
10
14
#3230
00
04
#3235
b111110 E
10
14
#3240
00
04
#3245
b111111 E
10
14
#3250
00
04
#3255
b1000000 E
10
14
#3260
00
04
#3265
b1000001 E
10
14
#3270
00
04
#3275
b1000010 E
10
14
#3280
00
04
#3285
b1000011 E
10
14
#3290
00
04
#3295
b1000100 E
10
14
#3300
00
04
#3305
b1000101 E
10
14
#3310
00
04
#3315
b1000110 E
10
14
#3320
00
04
#3325
b1000111 E
10
14
#3330
00
04
#3335
b1001000 E
10
14
#3340
00
04
#3345
b1001001 E
10
14
#3350
00
04
#3355
b1001010 E
10
14
#3360
00
04
#3365
b1001011 E
10
14
#3370
00
04
#3375
b1001100 E
10
14
#3380
00
04
#3385
b1001101 E
10
14
#3390
00
04
#3395
b1001110 E
10
14
#3400
00
04
#3405
b1001111 E
10
14
#3410
00
04
#3415
b1010000 E
10
14
#3420
00
04
#3425
b1010001 E
10
14
#3430
00
04
#3435
b1010010 E
10
14
#3440
00
04
#3445
b1010011 E
10
14
#3450
00
04
#3455
b1010100 E
10
14
#3460
00
04
#3465
b1010101 E
10
14
#3470
00
04
#3475
b1010110 E
10
14
#3480
00
04
#3485
b1010111 E
10
14
#3490
00
04
#3495
b1011000 E
10
14
#3500
00
04
#3505
b1011001 E
10
14
#3510
00
04
#3515
b1011010 E
10
14
#3520
00
04
#3525
b1011011 E
10
14
#3530
00
04
#3535
b1011100 E
10
14
#3540
00
04
#3545
b1011101 E
10
14
#3550
00
04
#3555
b1011110 E
10
14
#3560
00
04
#3565
b1011111 E
10
14
#3570
00
04
#3575
b1100000 E
10
14
#3580
00
04
#3585
b1100001 E
10
14
#3590
00
04
#3595
b1100010 E
10
14
#3600
00
04
#3605
b1100011 E
10
14
#3610
00
04
#3615
b1100100 E
10
14
#3620
00
04
#3625
b1100101 E
10
14
#3630
00
04
#3635
b1100110 E
10
14
#3640
00
04
#3645
b1100111 E
10
14
#3650
00
04
#3655
b1101000 E
10
14
#3660
00
04
#3665
b1101001 E
10
14
#3670
00
04
#3675
b1101010 E
10
14
#3680
00
04
#3685
b1101011 E
10
14
#3690
00
04
#3695
b1101100 E
10
14
#3700
00
04
#3705
b1101101 E
10
14
#3710
00
04
#3715
b1101110 E
10
14
#3720
00
04
#3725
b1101111 E
10
14
#3730
00
04
#3735
b1110000 E
10
14
#3740
00
04
#3745
b1110001 E
10
14
#3750
00
04
#3755
b1110010 E
10
14
#3760
00
04
#3765
b1110011 E
10
14
#3770
00
04
#3775
b1110100 E
10
14
#3780
00
04
#3785
b1110101 E
10
14
#3790
00
04
#3795
b1110110 E
10
14
#3800
00
04
#3805
b1110111 E
10
14
#3810
00
04
#3815
b1111000 E
10
14
#3820
00
04
#3825
b1111001 E
10
14
#3830
00
04
#3835
b1111010 E
10
14
#3840
00
04
#3845
b1111011 E
10
14
#3850
00
04
#3855
b1111100 E
10
14
#3860
00
04
#3865
b1111101 E
10
14
#3870
00
04
#3875
b1111110 E
10
14
#3880
00
04
#3885
b11 C
b1010000010010000010 A
1$
1&
b1111111 E
1)
10
14
#3890
00
04
#3895
1F
1*
0$
0&
b11 C
b1010000010010000010 A
b0 E
0)
b11 B
b11 "
b11 8
b1010000010010000010 @
10
14
#3900
00
04
#3905
b1 E
10
14
#3910
00
04
#3915
b10 E
10
14
#3920
00
04
#3925
b11 E
10
14
#3930
00
04
#3935
b100 E
10
14
#3940
00
04
#3945
b101 E
10
14
#3950
00
04
#3955
b110 E
10
14
#3960
00
04
#3965
b111 E
10
14
#3970
00
04
#3975
b1000 E
10
14
#3980
00
04
#3985
b1001 E
10
14
#3990
00
04
#3995
b1010 E
10
14
#4000
00
04
#4005
b1011 E
10
14
#4010
00
04
#4015
b1100 E
10
14
#4020
00
04
#4025
b1101 E
10
14
#4030
00
04
#4035
b1110 E
10
14
#4040
00
04
#4045
b1111 E
10
14
#4050
00
04
#4055
b10000 E
10
14
#4060
00
04
#4065
b10001 E
10
14
#4070
00
04
#4075
b10010 E
10
14
#4080
00
04
#4085
b10011 E
10
14
#4090
00
04
#4095
b10100 E
10
14
#4100
00
04
#4105
b10101 E
10
14
#4110
00
04
#4115
b10110 E
10
14
#4120
00
04
#4125
b10111 E
10
14
#4130
00
04
#4135
b11000 E
10
14
#4140
00
04
#4145
b11001 E
10
14
#4150
00
04
#4155
b11010 E
10
14
#4160
00
04
#4165
b11011 E
10
14
#4170
00
04
#4175
b11100 E
10
14
#4180
00
04
#4185
b11101 E
10
14
#4190
00
04
#4195
b11110 E
10
14
#4200
00
04
#4205
b11111 E
10
14
#4210
00
04
#4215
b100000 E
10
14
#4220
00
04
#4225
b100001 E
10
14
#4230
00
04
#4235
b100010 E
10
14
#4240
00
04
#4245
b100011 E
10
14
#4250
00
04
#4255
0F
0*
b100100 E
10
14
#4260
00
04
#4265
b100101 E
10
14
#4270
00
04
#4275
b100110 E
10
14
#4280
00
04
#4285
b100111 E
10
14
#4290
00
04
#4295
b101000 E
10
14
#4300
00
04
#4305
b101001 E
10
14
#4310
00
04
#4315
b101010 E
10
14
#4320
00
04
#4325
b101011 E
10
14
#4330
00
04
#4335
b101100 E
10
14
#4340
00
04
#4345
b101101 E
10
14
#4350
00
04
#4355
b101110 E
10
14
#4360
00
04
#4365
b101111 E
10
14
#4370
00
04
#4375
b110000 E
10
14
#4380
00
04
#4385
b110001 E
10
14
#4390
00
04
#4395
b110010 E
10
14
#4400
00
04
#4405
b110011 E
10
14
#4410
00
04
#4415
b110100 E
10
14
#4420
00
04
#4425
b110101 E
10
14
#4430
00
04
#4435
b110110 E
10
14
#4440
00
04
#4445
b110111 E
10
14
#4450
00
04
#4455
b111000 E
10
14
#4460
00
04
#4465
b111001 E
10
14
#4470
00
04
#4475
b111010 E
10
14
#4480
00
04
#4485
b111011 E
10
14
#4490
00
04
#4495
b111100 E
10
14
#4500
00
04
#4505
b111101 E
10
14
#4510
00
04
#4515
b111110 E
10
14
#4520
00
04
#4525
b111111 E
10
14
#4530
00
04
#4535
b1000000 E
10
14
#4540
00
04
#4545
b1000001 E
10
14
#4550
00
04
#4555
b1000010 E
10
14
#4560
00
04
#4565
b1000011 E
10
14
#4570
00
04
#4575
b1000100 E
10
14
#4580
00
04
#4585
b1000101 E
10
14
#4590
00
04
#4595
b1000110 E
10
14
#4600
00
04
#4605
b1000111 E
10
14
#4610
00
04
#4615
b1001000 E
10
14
#4620
00
04
#4625
b1001001 E
10
14
#4630
00
04
#4635
b1001010 E
10
14
#4640
00
04
#4645
b1001011 E
10
14
#4650
00
04
#4655
b1001100 E
10
14
#4660
00
04
#4665
b1001101 E
10
14
#4670
00
04
#4675
b1001110 E
10
14
#4680
00
04
#4685
b1001111 E
10
14
#4690
00
04
#4695
b1010000 E
10
14
#4700
00
04
#4705
b1010001 E
10
14
#4710
00
04
#4715
b1010010 E
10
14
#4720
00
04
#4725
b1010011 E
10
14
#4730
00
04
#4735
b1010100 E
10
14
#4740
00
04
#4745
b1010101 E
10
14
#4750
00
04
#4755
b1010110 E
10
14
#4760
00
04
#4765
b1010111 E
10
14
#4770
00
04
#4775
b1011000 E
10
14
#4780
00
04
#4785
b1011001 E
10
14
#4790
00
04
#4795
b1011010 E
10
14
#4800
00
04
#4805
b1011011 E
10
14
#4810
00
04
#4815
b1011100 E
10
14
#4820
00
04
#4825
b1011101 E
10
14
#4830
00
04
#4835
b1011110 E
10
14
#4840
00
04
#4845
b1011111 E
10
14
#4850
00
04
#4855
b1100000 E
10
14
#4860
00
04
#4865
b1100001 E
10
14
#4870
00
04
#4875
b1100010 E
10
14
#4880
00
04
#4885
b1100011 E
10
14
#4890
00
04
#4895
b1100100 E
10
14
#4900
00
04
#4905
b1100101 E
10
14
#4910
00
04
#4915
b1100110 E
10
14
#4920
00
04
#4925
b1100111 E
10
14
#4930
00
04
#4935
b1101000 E
10
14
#4940
00
04
#4945
b1101001 E
10
14
#4950
00
04
#4955
b1101010 E
10
14
#4960
00
04
#4965
b1101011 E
10
14
#4970
00
04
#4975
b1101100 E
10
14
#4980
00
04
#4985
b1101101 E
10
14
#4990
00
04
#4995
b1101110 E
10
14
#5000
00
04
#5005
b1101111 E
10
14
#5010
00
04
#5015
b1110000 E
10
14
#5020
00
04
#5025
b1110001 E
10
14
#5030
00
04
#5035
b1110010 E
10
14
#5040
00
04
#5045
b1110011 E
10
14
#5050
00
04
#5055
b1110100 E
10
14
#5060
00
04
#5065
b1110101 E
10
14
#5070
00
04
#5075
b1110110 E
10
14
#5080
00
04
#5085
b1110111 E
10
14
#5090
00
04
#5095
b1111000 E
10
14
#5100
00
04
#5105
b1111001 E
10
14
#5110
00
04
#5115
b1111010 E
10
14
#5120
00
04
#5125
b1111011 E
10
14
#5130
00
04
#5135
b1111100 E
10
14
#5140
00
04
#5145
b1111101 E
10
14
#5150
00
04
#5155
b1111110 E
10
14
#5160
00
04
#5165
b100 C
b10100000100100000100 A
1$
1&
b1111111 E
1)
10
14
#5170
00
04
#5175
1F
1*
0$
0&
b100 C
b10100000100100000100 A
b0 E
0)
b100 B
b100 "
b100 8
b10100000100100000100 @
10
14
#5180
00
04
#5185
b1 E
10
14
#5190
00
04
#5195
b10 E
10
14
#5200
00
04
#5205
b11 E
10
14
#5210
00
04
#5215
b100 E
10
14
#5220
00
04
#5225
b101 E
10
14
#5230
00
04
#5235
b110 E
10
14
#5240
00
04
#5245
b111 E
10
14
#5250
00
04
#5255
b1000 E
10
14
#5260
00
04
#5265
b1001 E
10
14
#5270
00
04
#5275
b1010 E
10
14
#5280
00
04
#5285
b1011 E
10
14
#5290
00
04
#5295
b1100 E
10
14
#5300
00
04
#5305
b1101 E
10
14
#5310
00
04
#5315
b1110 E
10
14
#5320
00
04
#5325
b1111 E
10
14
#5330
00
04
#5335
b10000 E
10
14
#5340
00
04
#5345
b10001 E
10
14
#5350
00
04
#5355
b10010 E
10
14
#5360
00
04
#5365
b10011 E
10
14
#5370
00
04
#5375
b10100 E
10
14
#5380
00
04
#5385
b10101 E
10
14
#5390
00
04
#5395
b10110 E
10
14
#5400
00
04
#5405
b10111 E
10
14
#5410
00
04
#5415
b11000 E
10
14
#5420
00
04
#5425
b11001 E
10
14
#5430
00
04
#5435
b11010 E
10
14
#5440
00
04
#5445
b11011 E
10
14
#5450
00
04
#5455
b11100 E
10
14
#5460
00
04
#5465
b11101 E
10
14
#5470
00
04
#5475
b11110 E
10
14
#5480
00
04
#5485
b11111 E
10
14
#5490
00
04
#5495
b100000 E
10
14
#5500
00
04
#5505
b100001 E
10
14
#5510
00
04
#5515
b100010 E
10
14
#5520
00
04
#5525
b100011 E
10
14
#5530
00
04
#5535
0F
0*
b100100 E
10
14
#5540
00
04
#5545
b100101 E
10
14
#5550
00
04
#5555
b100110 E
10
14
#5560
00
04
#5565
b100111 E
10
14
#5570
00
04
#5575
b101000 E
10
14
#5580
00
04
#5585
b101001 E
10
14
#5590
00
04
#5595
b101010 E
10
14
#5600
00
04
#5605
b101011 E
10
14
#5610
00
04
#5615
b101100 E
10
14
#5620
00
04
#5625
b101101 E
10
14
#5630
00
04
#5635
b101110 E
10
14
#5640
00
04
#5645
b101111 E
10
14
#5650
00
04
#5655
b110000 E
10
14
#5660
00
04
#5665
b110001 E
10
14
#5670
00
04
#5675
b110010 E
10
14
#5680
00
04
#5685
b110011 E
10
14
#5690
00
04
#5695
b110100 E
10
14
#5700
00
04
#5705
b110101 E
10
14
#5710
00
04
#5715
b110110 E
10
14
#5720
00
04
#5725
b110111 E
10
14
#5730
00
04
#5735
b111000 E
10
14
#5740
00
04
#5745
b111001 E
10
14
#5750
00
04
#5755
b111010 E
10
14
#5760
00
04
#5765
b111011 E
10
14
#5770
00
04
#5775
b111100 E
10
14
#5780
00
04
#5785
b111101 E
10
14
#5790
00
04
#5795
b111110 E
10
14
#5800
00
04
#5805
b111111 E
10
14
#5810
00
04
#5815
b1000000 E
10
14
#5820
00
04
#5825
b1000001 E
10
14
#5830
00
04
#5835
b1000010 E
10
14
#5840
00
04
#5845
b1000011 E
10
14
#5850
00
04
#5855
b1000100 E
10
14
#5860
00
04
#5865
b1000101 E
10
14
#5870
00
04
#5875
b1000110 E
10
14
